-------------------------------------------------------------------------------
Test set: com.exceltech.excelyaar.ExcelyaarApplicationTests
-------------------------------------------------------------------------------
Tests run: 1, Failures: 0, Errors: 0, Skipped: 0, Time elapsed: 15.18 s - in com.exceltech.excelyaar.ExcelyaarApplicationTests
